%YAML 1.1
%TAG !u! tag:unity3d.com,2011:
--- !u!1 &2160481140504856203
GameObject:
  m_ObjectHideFlags: 0
  m_CorrespondingSourceObject: {fileID: 0}
  m_PrefabInstance: {fileID: 0}
  m_PrefabAsset: {fileID: 0}
  serializedVersion: 6
  m_Component:
  - component: {fileID: 3369822916806501379}
  - component: {fileID: 8724382327223744375}
  - component: {fileID: 3762670141034218231}
  m_Layer: 0
  m_Name: Layer1
  m_TagString: Untagged
  m_Icon: {fileID: 0}
  m_NavMeshLayer: 0
  m_StaticEditorFlags: 0
  m_IsActive: 1
--- !u!4 &3369822916806501379
Transform:
  m_ObjectHideFlags: 0
  m_CorrespondingSourceObject: {fileID: 0}
  m_PrefabInstance: {fileID: 0}
  m_PrefabAsset: {fileID: 0}
  m_GameObject: {fileID: 2160481140504856203}
  serializedVersion: 2
  m_LocalRotation: {x: -0, y: -0, z: -0, w: 1}
  m_LocalPosition: {x: 0, y: 0, z: 0}
  m_LocalScale: {x: 1, y: 1, z: 1}
  m_ConstrainProportionsScale: 0
  m_Children: []
  m_Father: {fileID: 6915844426586315713}
  m_LocalEulerAnglesHint: {x: 0, y: 0, z: 0}
--- !u!1839735485 &8724382327223744375
Tilemap:
  m_ObjectHideFlags: 0
  m_CorrespondingSourceObject: {fileID: 0}
  m_PrefabInstance: {fileID: 0}
  m_PrefabAsset: {fileID: 0}
  m_GameObject: {fileID: 2160481140504856203}
  m_Enabled: 1
  m_Tiles:
  - first: {x: 0, y: -6, z: 0}
    second:
      serializedVersion: 2
      m_TileIndex: 42
      m_TileSpriteIndex: 42
      m_TileMatrixIndex: 0
      m_TileColorIndex: 0
      m_TileObjectToInstantiateIndex: 65535
      dummyAlignment: 0
      m_AllTileFlags: 1073741825
  - first: {x: 1, y: -6, z: 0}
    second:
      serializedVersion: 2
      m_TileIndex: 43
      m_TileSpriteIndex: 43
      m_TileMatrixIndex: 0
      m_TileColorIndex: 0
      m_TileObjectToInstantiateIndex: 65535
      dummyAlignment: 0
      m_AllTileFlags: 1073741825
  - first: {x: 2, y: -6, z: 0}
    second:
      serializedVersion: 2
      m_TileIndex: 44
      m_TileSpriteIndex: 44
      m_TileMatrixIndex: 0
      m_TileColorIndex: 0
      m_TileObjectToInstantiateIndex: 65535
      dummyAlignment: 0
      m_AllTileFlags: 1073741825
  - first: {x: 3, y: -6, z: 0}
    second:
      serializedVersion: 2
      m_TileIndex: 45
      m_TileSpriteIndex: 45
      m_TileMatrixIndex: 0
      m_TileColorIndex: 0
      m_TileObjectToInstantiateIndex: 65535
      dummyAlignment: 0
      m_AllTileFlags: 1073741825
  - first: {x: 4, y: -6, z: 0}
    second:
      serializedVersion: 2
      m_TileIndex: 46
      m_TileSpriteIndex: 46
      m_TileMatrixIndex: 0
      m_TileColorIndex: 0
      m_TileObjectToInstantiateIndex: 65535
      dummyAlignment: 0
      m_AllTileFlags: 1073741825
  - first: {x: 5, y: -6, z: 0}
    second:
      serializedVersion: 2
      m_TileIndex: 47
      m_TileSpriteIndex: 47
      m_TileMatrixIndex: 0
      m_TileColorIndex: 0
      m_TileObjectToInstantiateIndex: 65535
      dummyAlignment: 0
      m_AllTileFlags: 1073741825
  - first: {x: 6, y: -6, z: 0}
    second:
      serializedVersion: 2
      m_TileIndex: 48
      m_TileSpriteIndex: 48
      m_TileMatrixIndex: 0
      m_TileColorIndex: 0
      m_TileObjectToInstantiateIndex: 65535
      dummyAlignment: 0
      m_AllTileFlags: 1073741825
  - first: {x: 0, y: -5, z: 0}
    second:
      serializedVersion: 2
      m_TileIndex: 35
      m_TileSpriteIndex: 35
      m_TileMatrixIndex: 0
      m_TileColorIndex: 0
      m_TileObjectToInstantiateIndex: 65535
      dummyAlignment: 0
      m_AllTileFlags: 1073741825
  - first: {x: 1, y: -5, z: 0}
    second:
      serializedVersion: 2
      m_TileIndex: 36
      m_TileSpriteIndex: 36
      m_TileMatrixIndex: 0
      m_TileColorIndex: 0
      m_TileObjectToInstantiateIndex: 65535
      dummyAlignment: 0
      m_AllTileFlags: 1073741825
  - first: {x: 2, y: -5, z: 0}
    second:
      serializedVersion: 2
      m_TileIndex: 37
      m_TileSpriteIndex: 37
      m_TileMatrixIndex: 0
      m_TileColorIndex: 0
      m_TileObjectToInstantiateIndex: 65535
      dummyAlignment: 0
      m_AllTileFlags: 1073741825
  - first: {x: 3, y: -5, z: 0}
    second:
      serializedVersion: 2
      m_TileIndex: 38
      m_TileSpriteIndex: 38
      m_TileMatrixIndex: 0
      m_TileColorIndex: 0
      m_TileObjectToInstantiateIndex: 65535
      dummyAlignment: 0
      m_AllTileFlags: 1073741825
  - first: {x: 4, y: -5, z: 0}
    second:
      serializedVersion: 2
      m_TileIndex: 39
      m_TileSpriteIndex: 39
      m_TileMatrixIndex: 0
      m_TileColorIndex: 0
      m_TileObjectToInstantiateIndex: 65535
      dummyAlignment: 0
      m_AllTileFlags: 1073741825
  - first: {x: 5, y: -5, z: 0}
    second:
      serializedVersion: 2
      m_TileIndex: 40
      m_TileSpriteIndex: 40
      m_TileMatrixIndex: 0
      m_TileColorIndex: 0
      m_TileObjectToInstantiateIndex: 65535
      dummyAlignment: 0
      m_AllTileFlags: 1073741825
  - first: {x: 6, y: -5, z: 0}
    second:
      serializedVersion: 2
      m_TileIndex: 41
      m_TileSpriteIndex: 41
      m_TileMatrixIndex: 0
      m_TileColorIndex: 0
      m_TileObjectToInstantiateIndex: 65535
      dummyAlignment: 0
      m_AllTileFlags: 1073741825
  - first: {x: 0, y: -4, z: 0}
    second:
      serializedVersion: 2
      m_TileIndex: 28
      m_TileSpriteIndex: 28
      m_TileMatrixIndex: 0
      m_TileColorIndex: 0
      m_TileObjectToInstantiateIndex: 65535
      dummyAlignment: 0
      m_AllTileFlags: 1073741825
  - first: {x: 1, y: -4, z: 0}
    second:
      serializedVersion: 2
      m_TileIndex: 29
      m_TileSpriteIndex: 29
      m_TileMatrixIndex: 0
      m_TileColorIndex: 0
      m_TileObjectToInstantiateIndex: 65535
      dummyAlignment: 0
      m_AllTileFlags: 1073741825
  - first: {x: 2, y: -4, z: 0}
    second:
      serializedVersion: 2
      m_TileIndex: 30
      m_TileSpriteIndex: 30
      m_TileMatrixIndex: 0
      m_TileColorIndex: 0
      m_TileObjectToInstantiateIndex: 65535
      dummyAlignment: 0
      m_AllTileFlags: 1073741825
  - first: {x: 3, y: -4, z: 0}
    second:
      serializedVersion: 2
      m_TileIndex: 31
      m_TileSpriteIndex: 31
      m_TileMatrixIndex: 0
      m_TileColorIndex: 0
      m_TileObjectToInstantiateIndex: 65535
      dummyAlignment: 0
      m_AllTileFlags: 1073741825
  - first: {x: 4, y: -4, z: 0}
    second:
      serializedVersion: 2
      m_TileIndex: 32
      m_TileSpriteIndex: 32
      m_TileMatrixIndex: 0
      m_TileColorIndex: 0
      m_TileObjectToInstantiateIndex: 65535
      dummyAlignment: 0
      m_AllTileFlags: 1073741825
  - first: {x: 5, y: -4, z: 0}
    second:
      serializedVersion: 2
      m_TileIndex: 33
      m_TileSpriteIndex: 33
      m_TileMatrixIndex: 0
      m_TileColorIndex: 0
      m_TileObjectToInstantiateIndex: 65535
      dummyAlignment: 0
      m_AllTileFlags: 1073741825
  - first: {x: 6, y: -4, z: 0}
    second:
      serializedVersion: 2
      m_TileIndex: 34
      m_TileSpriteIndex: 34
      m_TileMatrixIndex: 0
      m_TileColorIndex: 0
      m_TileObjectToInstantiateIndex: 65535
      dummyAlignment: 0
      m_AllTileFlags: 1073741825
  - first: {x: 0, y: -3, z: 0}
    second:
      serializedVersion: 2
      m_TileIndex: 21
      m_TileSpriteIndex: 21
      m_TileMatrixIndex: 0
      m_TileColorIndex: 0
      m_TileObjectToInstantiateIndex: 65535
      dummyAlignment: 0
      m_AllTileFlags: 1073741825
  - first: {x: 1, y: -3, z: 0}
    second:
      serializedVersion: 2
      m_TileIndex: 22
      m_TileSpriteIndex: 22
      m_TileMatrixIndex: 0
      m_TileColorIndex: 0
      m_TileObjectToInstantiateIndex: 65535
      dummyAlignment: 0
      m_AllTileFlags: 1073741825
  - first: {x: 2, y: -3, z: 0}
    second:
      serializedVersion: 2
      m_TileIndex: 23
      m_TileSpriteIndex: 23
      m_TileMatrixIndex: 0
      m_TileColorIndex: 0
      m_TileObjectToInstantiateIndex: 65535
      dummyAlignment: 0
      m_AllTileFlags: 1073741825
  - first: {x: 3, y: -3, z: 0}
    second:
      serializedVersion: 2
      m_TileIndex: 24
      m_TileSpriteIndex: 24
      m_TileMatrixIndex: 0
      m_TileColorIndex: 0
      m_TileObjectToInstantiateIndex: 65535
      dummyAlignment: 0
      m_AllTileFlags: 1073741825
  - first: {x: 4, y: -3, z: 0}
    second:
      serializedVersion: 2
      m_TileIndex: 25
      m_TileSpriteIndex: 25
      m_TileMatrixIndex: 0
      m_TileColorIndex: 0
      m_TileObjectToInstantiateIndex: 65535
      dummyAlignment: 0
      m_AllTileFlags: 1073741825
  - first: {x: 5, y: -3, z: 0}
    second:
      serializedVersion: 2
      m_TileIndex: 26
      m_TileSpriteIndex: 26
      m_TileMatrixIndex: 0
      m_TileColorIndex: 0
      m_TileObjectToInstantiateIndex: 65535
      dummyAlignment: 0
      m_AllTileFlags: 1073741825
  - first: {x: 6, y: -3, z: 0}
    second:
      serializedVersion: 2
      m_TileIndex: 27
      m_TileSpriteIndex: 27
      m_TileMatrixIndex: 0
      m_TileColorIndex: 0
      m_TileObjectToInstantiateIndex: 65535
      dummyAlignment: 0
      m_AllTileFlags: 1073741825
  - first: {x: 0, y: -2, z: 0}
    second:
      serializedVersion: 2
      m_TileIndex: 14
      m_TileSpriteIndex: 14
      m_TileMatrixIndex: 0
      m_TileColorIndex: 0
      m_TileObjectToInstantiateIndex: 65535
      dummyAlignment: 0
      m_AllTileFlags: 1073741825
  - first: {x: 1, y: -2, z: 0}
    second:
      serializedVersion: 2
      m_TileIndex: 15
      m_TileSpriteIndex: 15
      m_TileMatrixIndex: 0
      m_TileColorIndex: 0
      m_TileObjectToInstantiateIndex: 65535
      dummyAlignment: 0
      m_AllTileFlags: 1073741825
  - first: {x: 2, y: -2, z: 0}
    second:
      serializedVersion: 2
      m_TileIndex: 16
      m_TileSpriteIndex: 16
      m_TileMatrixIndex: 0
      m_TileColorIndex: 0
      m_TileObjectToInstantiateIndex: 65535
      dummyAlignment: 0
      m_AllTileFlags: 1073741825
  - first: {x: 3, y: -2, z: 0}
    second:
      serializedVersion: 2
      m_TileIndex: 17
      m_TileSpriteIndex: 17
      m_TileMatrixIndex: 0
      m_TileColorIndex: 0
      m_TileObjectToInstantiateIndex: 65535
      dummyAlignment: 0
      m_AllTileFlags: 1073741825
  - first: {x: 4, y: -2, z: 0}
    second:
      serializedVersion: 2
      m_TileIndex: 18
      m_TileSpriteIndex: 18
      m_TileMatrixIndex: 0
      m_TileColorIndex: 0
      m_TileObjectToInstantiateIndex: 65535
      dummyAlignment: 0
      m_AllTileFlags: 1073741825
  - first: {x: 5, y: -2, z: 0}
    second:
      serializedVersion: 2
      m_TileIndex: 19
      m_TileSpriteIndex: 19
      m_TileMatrixIndex: 0
      m_TileColorIndex: 0
      m_TileObjectToInstantiateIndex: 65535
      dummyAlignment: 0
      m_AllTileFlags: 1073741825
  - first: {x: 6, y: -2, z: 0}
    second:
      serializedVersion: 2
      m_TileIndex: 20
      m_TileSpriteIndex: 20
      m_TileMatrixIndex: 0
      m_TileColorIndex: 0
      m_TileObjectToInstantiateIndex: 65535
      dummyAlignment: 0
      m_AllTileFlags: 1073741825
  - first: {x: 0, y: -1, z: 0}
    second:
      serializedVersion: 2
      m_TileIndex: 7
      m_TileSpriteIndex: 7
      m_TileMatrixIndex: 0
      m_TileColorIndex: 0
      m_TileObjectToInstantiateIndex: 65535
      dummyAlignment: 0
      m_AllTileFlags: 1073741825
  - first: {x: 1, y: -1, z: 0}
    second:
      serializedVersion: 2
      m_TileIndex: 8
      m_TileSpriteIndex: 8
      m_TileMatrixIndex: 0
      m_TileColorIndex: 0
      m_TileObjectToInstantiateIndex: 65535
      dummyAlignment: 0
      m_AllTileFlags: 1073741825
  - first: {x: 2, y: -1, z: 0}
    second:
      serializedVersion: 2
      m_TileIndex: 9
      m_TileSpriteIndex: 9
      m_TileMatrixIndex: 0
      m_TileColorIndex: 0
      m_TileObjectToInstantiateIndex: 65535
      dummyAlignment: 0
      m_AllTileFlags: 1073741825
  - first: {x: 3, y: -1, z: 0}
    second:
      serializedVersion: 2
      m_TileIndex: 10
      m_TileSpriteIndex: 10
      m_TileMatrixIndex: 0
      m_TileColorIndex: 0
      m_TileObjectToInstantiateIndex: 65535
      dummyAlignment: 0
      m_AllTileFlags: 1073741825
  - first: {x: 4, y: -1, z: 0}
    second:
      serializedVersion: 2
      m_TileIndex: 11
      m_TileSpriteIndex: 11
      m_TileMatrixIndex: 0
      m_TileColorIndex: 0
      m_TileObjectToInstantiateIndex: 65535
      dummyAlignment: 0
      m_AllTileFlags: 1073741825
  - first: {x: 5, y: -1, z: 0}
    second:
      serializedVersion: 2
      m_TileIndex: 12
      m_TileSpriteIndex: 12
      m_TileMatrixIndex: 0
      m_TileColorIndex: 0
      m_TileObjectToInstantiateIndex: 65535
      dummyAlignment: 0
      m_AllTileFlags: 1073741825
  - first: {x: 6, y: -1, z: 0}
    second:
      serializedVersion: 2
      m_TileIndex: 13
      m_TileSpriteIndex: 13
      m_TileMatrixIndex: 0
      m_TileColorIndex: 0
      m_TileObjectToInstantiateIndex: 65535
      dummyAlignment: 0
      m_AllTileFlags: 1073741825
  - first: {x: 0, y: 0, z: 0}
    second:
      serializedVersion: 2
      m_TileIndex: 0
      m_TileSpriteIndex: 0
      m_TileMatrixIndex: 0
      m_TileColorIndex: 0
      m_TileObjectToInstantiateIndex: 65535
      dummyAlignment: 0
      m_AllTileFlags: 1073741825
  - first: {x: 1, y: 0, z: 0}
    second:
      serializedVersion: 2
      m_TileIndex: 1
      m_TileSpriteIndex: 1
      m_TileMatrixIndex: 0
      m_TileColorIndex: 0
      m_TileObjectToInstantiateIndex: 65535
      dummyAlignment: 0
      m_AllTileFlags: 1073741825
  - first: {x: 2, y: 0, z: 0}
    second:
      serializedVersion: 2
      m_TileIndex: 2
      m_TileSpriteIndex: 2
      m_TileMatrixIndex: 0
      m_TileColorIndex: 0
      m_TileObjectToInstantiateIndex: 65535
      dummyAlignment: 0
      m_AllTileFlags: 1073741825
  - first: {x: 3, y: 0, z: 0}
    second:
      serializedVersion: 2
      m_TileIndex: 3
      m_TileSpriteIndex: 3
      m_TileMatrixIndex: 0
      m_TileColorIndex: 0
      m_TileObjectToInstantiateIndex: 65535
      dummyAlignment: 0
      m_AllTileFlags: 1073741825
  - first: {x: 4, y: 0, z: 0}
    second:
      serializedVersion: 2
      m_TileIndex: 4
      m_TileSpriteIndex: 4
      m_TileMatrixIndex: 0
      m_TileColorIndex: 0
      m_TileObjectToInstantiateIndex: 65535
      dummyAlignment: 0
      m_AllTileFlags: 1073741825
  - first: {x: 5, y: 0, z: 0}
    second:
      serializedVersion: 2
      m_TileIndex: 5
      m_TileSpriteIndex: 5
      m_TileMatrixIndex: 0
      m_TileColorIndex: 0
      m_TileObjectToInstantiateIndex: 65535
      dummyAlignment: 0
      m_AllTileFlags: 1073741825
  - first: {x: 6, y: 0, z: 0}
    second:
      serializedVersion: 2
      m_TileIndex: 6
      m_TileSpriteIndex: 6
      m_TileMatrixIndex: 0
      m_TileColorIndex: 0
      m_TileObjectToInstantiateIndex: 65535
      dummyAlignment: 0
      m_AllTileFlags: 1073741825
  m_AnimatedTiles: {}
  m_TileAssetArray:
  - m_RefCount: 1
    m_Data: {fileID: 11400000, guid: 0ab90c750be9d354796d59a711fb5080, type: 2}
  - m_RefCount: 1
    m_Data: {fileID: 11400000, guid: a96340dffb42993459c95c2056309df7, type: 2}
  - m_RefCount: 1
    m_Data: {fileID: 11400000, guid: bcb9001c85a6fe34cabddd111facf322, type: 2}
  - m_RefCount: 1
    m_Data: {fileID: 11400000, guid: 05dde0c5cc2277f42ae79c9d46769aa0, type: 2}
  - m_RefCount: 1
    m_Data: {fileID: 11400000, guid: afdcc18ac147e9a4aa97a9966611d600, type: 2}
  - m_RefCount: 1
    m_Data: {fileID: 11400000, guid: e6c1a75f028d80f4a890ff52d6c70f81, type: 2}
  - m_RefCount: 1
    m_Data: {fileID: 11400000, guid: df0b4885b695e58498f1650edf9fff1b, type: 2}
  - m_RefCount: 1
    m_Data: {fileID: 11400000, guid: 9ace11f898be54040961df4bf6f38624, type: 2}
  - m_RefCount: 1
    m_Data: {fileID: 11400000, guid: 163fe3d1191513c4fb0f9976c1893ddb, type: 2}
  - m_RefCount: 1
    m_Data: {fileID: 11400000, guid: 31c3518aca9d2534298a47c476b2fbeb, type: 2}
  - m_RefCount: 1
    m_Data: {fileID: 11400000, guid: d95a2d7f10812724cb76141fe815f8db, type: 2}
  - m_RefCount: 1
    m_Data: {fileID: 11400000, guid: ea1280e1ec2f42647af2273aab3d0502, type: 2}
  - m_RefCount: 1
    m_Data: {fileID: 11400000, guid: 9f3ed716eb35b0e4aa8d7ef867d04244, type: 2}
  - m_RefCount: 1
    m_Data: {fileID: 11400000, guid: 84726dceab22c774a8d98a9462bb9865, type: 2}
  - m_RefCount: 1
    m_Data: {fileID: 11400000, guid: 5e99526462e9e3a4fbaf3669d9435b98, type: 2}
  - m_RefCount: 1
    m_Data: {fileID: 11400000, guid: 19b8fce325e20b247a73687f871dcd78, type: 2}
  - m_RefCount: 1
    m_Data: {fileID: 11400000, guid: 308f1b569f14d394f8d07c28ae854b81, type: 2}
  - m_RefCount: 1
    m_Data: {fileID: 11400000, guid: 2328695ab28a70746beed9d64514db0c, type: 2}
  - m_RefCount: 1
    m_Data: {fileID: 11400000, guid: 10c62979e440a6b408f3ad38b43de43e, type: 2}
  - m_RefCount: 1
    m_Data: {fileID: 11400000, guid: 225aef651f74bf2429c69e776db33d23, type: 2}
  - m_RefCount: 1
    m_Data: {fileID: 11400000, guid: cf4142ae0852af34298a6201794822a0, type: 2}
  - m_RefCount: 1
    m_Data: {fileID: 11400000, guid: 31fc7b478951e964bad41c94e413f6c1, type: 2}
  - m_RefCount: 1
    m_Data: {fileID: 11400000, guid: 2aaaf3598677630408331e619866b5a9, type: 2}
  - m_RefCount: 1
    m_Data: {fileID: 11400000, guid: e0b1117a2924c3f42b55f2df1cfa8cec, type: 2}
  - m_RefCount: 1
    m_Data: {fileID: 11400000, guid: a0a9bdeb20f7eb24399dad3792655561, type: 2}
  - m_RefCount: 1
    m_Data: {fileID: 11400000, guid: 0922c977521226741a50b9a0c80adbe5, type: 2}
  - m_RefCount: 1
    m_Data: {fileID: 11400000, guid: 770b646040e28a143abee122bcb2353d, type: 2}
  - m_RefCount: 1
    m_Data: {fileID: 11400000, guid: 9b730676194be2142841773d4800c211, type: 2}
  - m_RefCount: 1
    m_Data: {fileID: 11400000, guid: a3cf32f0139386545bd6e77e652c201b, type: 2}
  - m_RefCount: 1
    m_Data: {fileID: 11400000, guid: ccf0048696093be48bf152a4edc901ca, type: 2}
  - m_RefCount: 1
    m_Data: {fileID: 11400000, guid: 98b6d4db5794b914a82ca9f7faa015f1, type: 2}
  - m_RefCount: 1
    m_Data: {fileID: 11400000, guid: 1fe3a8a556c576748bfea54cf68e3573, type: 2}
  - m_RefCount: 1
    m_Data: {fileID: 11400000, guid: 7c51e7bfdd7c74f4fa3df029e86355b1, type: 2}
  - m_RefCount: 1
    m_Data: {fileID: 11400000, guid: beb44331b1e9d3c499cd0e38fc2f8a9e, type: 2}
  - m_RefCount: 1
    m_Data: {fileID: 11400000, guid: 057ca9cfc90ff3749ab987f8d28e7efd, type: 2}
  - m_RefCount: 1
    m_Data: {fileID: 11400000, guid: 1f65f85027db5f44eae7a297b7cb9ae2, type: 2}
  - m_RefCount: 1
    m_Data: {fileID: 11400000, guid: bd67474d65022bc4ea15ea1979426572, type: 2}
  - m_RefCount: 1
    m_Data: {fileID: 11400000, guid: 5e091d26bff824f4e8708763a7445597, type: 2}
  - m_RefCount: 1
    m_Data: {fileID: 11400000, guid: 4215e0d0edd209649bae8aedb385322a, type: 2}
  - m_RefCount: 1
    m_Data: {fileID: 11400000, guid: 0235138acc28e2646a552ec4bdc648aa, type: 2}
  - m_RefCount: 1
    m_Data: {fileID: 11400000, guid: 452063970bd360849b1679d6f7576f1e, type: 2}
  - m_RefCount: 1
    m_Data: {fileID: 11400000, guid: 6d761797795d02444ab5049d61decc0d, type: 2}
  - m_RefCount: 1
    m_Data: {fileID: 11400000, guid: c533067bddda0e947991bf1c0ba1cb46, type: 2}
  - m_RefCount: 1
    m_Data: {fileID: 11400000, guid: 1eab38e832a9b2948b1332879bd9d5d3, type: 2}
  - m_RefCount: 1
    m_Data: {fileID: 11400000, guid: 7e3de0111080ce843a69d9697e8f60e7, type: 2}
  - m_RefCount: 1
    m_Data: {fileID: 11400000, guid: 680e91ca740bce0459b2ab5e587db940, type: 2}
  - m_RefCount: 1
    m_Data: {fileID: 11400000, guid: 425dd34bcbd50794c96f49249c42aa07, type: 2}
  - m_RefCount: 1
    m_Data: {fileID: 11400000, guid: 4ff5ae1d74b50534b8735217bd19b3e8, type: 2}
  - m_RefCount: 1
    m_Data: {fileID: 11400000, guid: e5e56007a0637014dbdb145c4a9a890d, type: 2}
  m_TileSpriteArray:
  - m_RefCount: 1
    m_Data: {fileID: 1025737130, guid: 5504523ba5d0a39429b8454e64c31cf8, type: 3}
  - m_RefCount: 1
    m_Data: {fileID: -124447130, guid: 5504523ba5d0a39429b8454e64c31cf8, type: 3}
  - m_RefCount: 1
    m_Data: {fileID: 329677982, guid: 5504523ba5d0a39429b8454e64c31cf8, type: 3}
  - m_RefCount: 1
    m_Data: {fileID: 34577276, guid: 5504523ba5d0a39429b8454e64c31cf8, type: 3}
  - m_RefCount: 1
    m_Data: {fileID: -1384931006, guid: 5504523ba5d0a39429b8454e64c31cf8, type: 3}
  - m_RefCount: 1
    m_Data: {fileID: 100760693, guid: 5504523ba5d0a39429b8454e64c31cf8, type: 3}
  - m_RefCount: 1
    m_Data: {fileID: 806657071, guid: 5504523ba5d0a39429b8454e64c31cf8, type: 3}
  - m_RefCount: 1
    m_Data: {fileID: -1999488287, guid: 5504523ba5d0a39429b8454e64c31cf8, type: 3}
  - m_RefCount: 1
    m_Data: {fileID: -82958106, guid: 5504523ba5d0a39429b8454e64c31cf8, type: 3}
  - m_RefCount: 1
    m_Data: {fileID: 7336307, guid: 5504523ba5d0a39429b8454e64c31cf8, type: 3}
  - m_RefCount: 1
    m_Data: {fileID: -251967476, guid: 5504523ba5d0a39429b8454e64c31cf8, type: 3}
  - m_RefCount: 1
    m_Data: {fileID: -794718370, guid: 5504523ba5d0a39429b8454e64c31cf8, type: 3}
  - m_RefCount: 1
    m_Data: {fileID: 826545177, guid: 5504523ba5d0a39429b8454e64c31cf8, type: 3}
  - m_RefCount: 1
    m_Data: {fileID: -1178402589, guid: 5504523ba5d0a39429b8454e64c31cf8, type: 3}
  - m_RefCount: 1
    m_Data: {fileID: 1164431846, guid: 5504523ba5d0a39429b8454e64c31cf8, type: 3}
  - m_RefCount: 1
    m_Data: {fileID: 635418453, guid: 5504523ba5d0a39429b8454e64c31cf8, type: 3}
  - m_RefCount: 1
    m_Data: {fileID: -1445050709, guid: 5504523ba5d0a39429b8454e64c31cf8, type: 3}
  - m_RefCount: 1
    m_Data: {fileID: -1725065733, guid: 5504523ba5d0a39429b8454e64c31cf8, type: 3}
  - m_RefCount: 1
    m_Data: {fileID: 256420335, guid: 5504523ba5d0a39429b8454e64c31cf8, type: 3}
  - m_RefCount: 1
    m_Data: {fileID: 942691879, guid: 5504523ba5d0a39429b8454e64c31cf8, type: 3}
  - m_RefCount: 1
    m_Data: {fileID: -1497087871, guid: 5504523ba5d0a39429b8454e64c31cf8, type: 3}
  - m_RefCount: 1
    m_Data: {fileID: -96735337, guid: 5504523ba5d0a39429b8454e64c31cf8, type: 3}
  - m_RefCount: 1
    m_Data: {fileID: -1336576172, guid: 5504523ba5d0a39429b8454e64c31cf8, type: 3}
  - m_RefCount: 1
    m_Data: {fileID: 1771824958, guid: 5504523ba5d0a39429b8454e64c31cf8, type: 3}
  - m_RefCount: 1
    m_Data: {fileID: -1363908436, guid: 5504523ba5d0a39429b8454e64c31cf8, type: 3}
  - m_RefCount: 1
    m_Data: {fileID: -1233571204, guid: 5504523ba5d0a39429b8454e64c31cf8, type: 3}
  - m_RefCount: 1
    m_Data: {fileID: -2135809578, guid: 5504523ba5d0a39429b8454e64c31cf8, type: 3}
  - m_RefCount: 1
    m_Data: {fileID: 659867982, guid: 5504523ba5d0a39429b8454e64c31cf8, type: 3}
  - m_RefCount: 1
    m_Data: {fileID: -1155689023, guid: 5504523ba5d0a39429b8454e64c31cf8, type: 3}
  - m_RefCount: 1
    m_Data: {fileID: 1394744299, guid: 5504523ba5d0a39429b8454e64c31cf8, type: 3}
  - m_RefCount: 1
    m_Data: {fileID: -852208248, guid: 5504523ba5d0a39429b8454e64c31cf8, type: 3}
  - m_RefCount: 1
    m_Data: {fileID: 1719866791, guid: 5504523ba5d0a39429b8454e64c31cf8, type: 3}
  - m_RefCount: 1
    m_Data: {fileID: 1896648208, guid: 5504523ba5d0a39429b8454e64c31cf8, type: 3}
  - m_RefCount: 1
    m_Data: {fileID: -439034692, guid: 5504523ba5d0a39429b8454e64c31cf8, type: 3}
  - m_RefCount: 1
    m_Data: {fileID: -1773045372, guid: 5504523ba5d0a39429b8454e64c31cf8, type: 3}
  - m_RefCount: 1
    m_Data: {fileID: -1559085831, guid: 5504523ba5d0a39429b8454e64c31cf8, type: 3}
  - m_RefCount: 1
    m_Data: {fileID: 36370542, guid: 5504523ba5d0a39429b8454e64c31cf8, type: 3}
  - m_RefCount: 1
    m_Data: {fileID: 1927194061, guid: 5504523ba5d0a39429b8454e64c31cf8, type: 3}
  - m_RefCount: 1
    m_Data: {fileID: 675164634, guid: 5504523ba5d0a39429b8454e64c31cf8, type: 3}
  - m_RefCount: 1
    m_Data: {fileID: -304295260, guid: 5504523ba5d0a39429b8454e64c31cf8, type: 3}
  - m_RefCount: 1
    m_Data: {fileID: -1203216882, guid: 5504523ba5d0a39429b8454e64c31cf8, type: 3}
  - m_RefCount: 1
    m_Data: {fileID: 684999208, guid: 5504523ba5d0a39429b8454e64c31cf8, type: 3}
  - m_RefCount: 1
    m_Data: {fileID: 766075304, guid: 5504523ba5d0a39429b8454e64c31cf8, type: 3}
  - m_RefCount: 1
    m_Data: {fileID: -354563462, guid: 5504523ba5d0a39429b8454e64c31cf8, type: 3}
  - m_RefCount: 1
    m_Data: {fileID: -1106094374, guid: 5504523ba5d0a39429b8454e64c31cf8, type: 3}
  - m_RefCount: 1
    m_Data: {fileID: -407758694, guid: 5504523ba5d0a39429b8454e64c31cf8, type: 3}
  - m_RefCount: 1
    m_Data: {fileID: -975968310, guid: 5504523ba5d0a39429b8454e64c31cf8, type: 3}
  - m_RefCount: 1
    m_Data: {fileID: -375848600, guid: 5504523ba5d0a39429b8454e64c31cf8, type: 3}
  - m_RefCount: 1
    m_Data: {fileID: -1716098351, guid: 5504523ba5d0a39429b8454e64c31cf8, type: 3}
  m_TileMatrixArray:
  - m_RefCount: 49
    m_Data:
      e00: 1
      e01: 0
      e02: 0
      e03: 0
      e10: 0
      e11: 1
      e12: 0
      e13: 0
      e20: 0
      e21: 0
      e22: 1
      e23: 0
      e30: 0
      e31: 0
      e32: 0
      e33: 1
  m_TileColorArray:
  - m_RefCount: 49
    m_Data: {r: 1, g: 1, b: 1, a: 1}
  m_TileObjectToInstantiateArray: []
  m_AnimationFrameRate: 1
  m_Color: {r: 1, g: 1, b: 1, a: 1}
  m_Origin: {x: 0, y: -6, z: 0}
  m_Size: {x: 7, y: 7, z: 1}
  m_TileAnchor: {x: 0.5, y: 0.5, z: 0}
  m_TileOrientation: 0
  m_TileOrientationMatrix:
    e00: 1
    e01: 0
    e02: 0
    e03: 0
    e10: 0
    e11: 1
    e12: 0
    e13: 0
    e20: 0
    e21: 0
    e22: 1
    e23: 0
    e30: 0
    e31: 0
    e32: 0
    e33: 1
--- !u!483693784 &3762670141034218231
TilemapRenderer:
  m_ObjectHideFlags: 0
  m_CorrespondingSourceObject: {fileID: 0}
  m_PrefabInstance: {fileID: 0}
  m_PrefabAsset: {fileID: 0}
  m_GameObject: {fileID: 2160481140504856203}
  m_Enabled: 1
  m_CastShadows: 0
  m_ReceiveShadows: 0
  m_DynamicOccludee: 0
  m_StaticShadowCaster: 0
  m_MotionVectors: 1
  m_LightProbeUsage: 0
  m_ReflectionProbeUsage: 0
  m_RayTracingMode: 0
  m_RayTraceProcedural: 0
  m_RenderingLayerMask: 1
  m_RendererPriority: 0
  m_Materials:
  - {fileID: 10754, guid: 0000000000000000f000000000000000, type: 0}
  m_StaticBatchInfo:
    firstSubMesh: 0
    subMeshCount: 0
  m_StaticBatchRoot: {fileID: 0}
  m_ProbeAnchor: {fileID: 0}
  m_LightProbeVolumeOverride: {fileID: 0}
  m_ScaleInLightmap: 1
  m_ReceiveGI: 1
  m_PreserveUVs: 0
  m_IgnoreNormalsForChartDetection: 0
  m_ImportantGI: 0
  m_StitchLightmapSeams: 1
  m_SelectedEditorRenderState: 0
  m_MinimumChartSize: 4
  m_AutoUVMaxDistance: 0.5
  m_AutoUVMaxAngle: 89
  m_LightmapParameters: {fileID: 0}
  m_SortingLayerID: 0
  m_SortingLayer: 0
  m_SortingOrder: 0
  m_ChunkSize: {x: 32, y: 32, z: 32}
  m_ChunkCullingBounds: {x: 0, y: 0, z: 0}
  m_MaxChunkCount: 16
  m_MaxFrameAge: 16
  m_SortOrder: 0
  m_Mode: 0
  m_DetectChunkCullingBounds: 0
  m_MaskInteraction: 0
--- !u!1 &9107043988265071034
GameObject:
  m_ObjectHideFlags: 0
  m_CorrespondingSourceObject: {fileID: 0}
  m_PrefabInstance: {fileID: 0}
  m_PrefabAsset: {fileID: 0}
  serializedVersion: 6
  m_Component:
  - component: {fileID: 6915844426586315713}
  - component: {fileID: 3153015760948862786}
  m_Layer: 0
  m_Name: Terrain
  m_TagString: Untagged
  m_Icon: {fileID: 0}
  m_NavMeshLayer: 0
  m_StaticEditorFlags: 0
  m_IsActive: 1
--- !u!4 &6915844426586315713
Transform:
  m_ObjectHideFlags: 0
  m_CorrespondingSourceObject: {fileID: 0}
  m_PrefabInstance: {fileID: 0}
  m_PrefabAsset: {fileID: 0}
  m_GameObject: {fileID: 9107043988265071034}
  serializedVersion: 2
  m_LocalRotation: {x: 0, y: 0, z: 0, w: 1}
  m_LocalPosition: {x: 0, y: 0, z: 0}
  m_LocalScale: {x: 1, y: 1, z: 1}
  m_ConstrainProportionsScale: 0
  m_Children:
  - {fileID: 3369822916806501379}
  m_Father: {fileID: 0}
  m_LocalEulerAnglesHint: {x: 0, y: 0, z: 0}
--- !u!156049354 &3153015760948862786
Grid:
  m_ObjectHideFlags: 0
  m_CorrespondingSourceObject: {fileID: 0}
  m_PrefabInstance: {fileID: 0}
  m_PrefabAsset: {fileID: 0}
  m_GameObject: {fileID: 9107043988265071034}
  m_Enabled: 1
  m_CellSize: {x: 1, y: 1, z: 0}
  m_CellGap: {x: 0, y: 0, z: 0}
  m_CellLayout: 0
  m_CellSwizzle: 0
--- !u!114 &6465872736220819773
MonoBehaviour:
  m_ObjectHideFlags: 0
  m_CorrespondingSourceObject: {fileID: 0}
  m_PrefabInstance: {fileID: 0}
  m_PrefabAsset: {fileID: 0}
  m_GameObject: {fileID: 0}
  m_Enabled: 1
  m_EditorHideFlags: 0
  m_Script: {fileID: 12395, guid: 0000000000000000e000000000000000, type: 0}
  m_Name: Palette Settings
  m_EditorClassIdentifier: 
  cellSizing: 0
  m_TransparencySortMode: 0
  m_TransparencySortAxis: {x: 0, y: 0, z: 1}
